comment	2019-02-06 17:10:01	0	e93d6dca-be1a-4279-809c-a6d65e277eb3	commentaire
comment	2019-02-07 02:37:21	1	cb3444cc-1f7a-4619-9cab-514865e7661d	commentaire
comment	2019-02-10 21:14:54	0	3ebeba0b-82d5-4f36-a4c7-8652687638ff	commentaire
comment	2019-02-12 23:10:37	1	f740a5ab-7935-4c4c-9f58-84804eeab0b1	commentaire
comment	2019-04-08 18:18:55	1	f6d2b9ca-75c6-43b4-8ed5-f25e7176808e	commentaire
comment	2019-06-30 05:25:34	1	d75eefe3-273e-437b-b057-d3da9f5009e5	commentaire
comment	2019-07-29 17:35:47	2	3ebeba0b-82d5-4f36-a4c7-8652687638ff	commentaire
comment	2019-07-30 23:24:12	3	56e8b3da-6b27-4d4d-9a69-d5d9f882fea3	commentaire
comment	2019-11-15 02:13:03	4	d75eefe3-273e-437b-b057-d3da9f5009e5	commentaire
comment	2019-11-21 01:42:25	4	f6d2b9ca-75c6-43b4-8ed5-f25e7176808e	commentaire
comment	2020-01-01 00:25:48	0	ae81a2a0-a05b-48bd-ac90-939e18157b78	commentaire
comment	2020-01-06 03:04:10	2	cb3444cc-1f7a-4619-9cab-514865e7661d	commentaire
comment	2020-01-13 10:42:42	0	e93d6dca-be1a-4279-809c-a6d65e277eb3	commentaire
comment	2020-03-20 09:07:13	5	3ebeba0b-82d5-4f36-a4c7-8652687638ff	commentaire
comment	2020-06-29 20:37:32	4	35281086-7a31-4dc4-8522-4746f88c0439	commentaire
comment	2020-07-08 16:09:25	1	3ebeba0b-82d5-4f36-a4c7-8652687638ff	commentaire
comment	2020-07-26 22:04:42	8	848d93ac-a1ae-47b7-97e3-1645b44a6bdf	commentaire
comment	2020-08-02 06:35:49	6	35281086-7a31-4dc4-8522-4746f88c0439	commentaire
comment	2020-08-04 13:56:00	1	d75eefe3-273e-437b-b057-d3da9f5009e5	commentaire
comment	2020-08-28 05:09:26	11	56e8b3da-6b27-4d4d-9a69-d5d9f882fea3	commentaire
comment	2020-08-30 03:45:00	1	f7dadfbc-366e-4437-911e-8c083aca644c	commentaire
comment	2020-09-16 23:56:10	1	80ef7eb0-28cb-46b7-aa47-af67693d8dec	commentaire
comment	2020-09-21 18:22:52	0	7b7b5962-e398-4954-8041-20c8b36166f2	commentaire
comment	2020-09-27 20:22:59	0	cb3444cc-1f7a-4619-9cab-514865e7661d	commentaire
comment	2020-11-23 20:52:34	9	7b7b5962-e398-4954-8041-20c8b36166f2	commentaire
comment	2020-11-25 11:55:22	5	7ea6d80e-3f5a-456a-9365-af7962389773	commentaire
comment	2020-12-16 16:26:34	9	d75eefe3-273e-437b-b057-d3da9f5009e5	commentaire
comment	2021-01-06 20:16:29	4	cb3444cc-1f7a-4619-9cab-514865e7661d	commentaire
comment	2021-01-15 12:53:44	6	51f3c71e-a4b6-4f6e-8954-875660f56d21	commentaire
comment	2021-02-21 07:53:33	13	848d93ac-a1ae-47b7-97e3-1645b44a6bdf	commentaire
comment	2021-02-24 22:09:56	9	ae81a2a0-a05b-48bd-ac90-939e18157b78	commentaire
comment	2021-03-23 11:42:17	7	80ef7eb0-28cb-46b7-aa47-af67693d8dec	commentaire
comment	2021-04-07 23:28:31	15	438758b5-c448-4598-b968-62e16fb4c51c	commentaire
comment	2021-06-09 02:38:20	15	35281086-7a31-4dc4-8522-4746f88c0439	commentaire
comment	2021-06-20 10:30:43	5	f7dadfbc-366e-4437-911e-8c083aca644c	commentaire
comment	2021-07-16 18:19:33	13	e54e2611-9ef2-4aab-b045-33316ba9533e	commentaire
comment	2021-07-19 23:33:26	3	e93d6dca-be1a-4279-809c-a6d65e277eb3	commentaire
comment	2021-07-25 02:53:23	7	51f3c71e-a4b6-4f6e-8954-875660f56d21	commentaire
comment	2021-07-28 05:12:41	11	35281086-7a31-4dc4-8522-4746f88c0439	commentaire
comment	2021-10-06 12:46:47	16	56e8b3da-6b27-4d4d-9a69-d5d9f882fea3	commentaire
comment	2021-11-15 15:33:07	11	438758b5-c448-4598-b968-62e16fb4c51c	commentaire
comment	2021-11-26 17:18:23	16	ae81a2a0-a05b-48bd-ac90-939e18157b78	commentaire
